<svg xmlns="http://www.w3.org/2000/svg" viewBox="2585 866 18 13">
  <defs>
    <style>
      .cls-1 {
        fill: #263869;
      }
    </style>
  </defs>
  <path id="Icon" class="cls-1" d="M17.862,5.309,12.972.169a.539.539,0,0,0-.932.341V2.32a.334.334,0,0,1-.309.324A13.773,13.773,0,0,0,.054,11.715a1.02,1.02,0,0,0,1.708.99l.034-.033a14.289,14.289,0,0,1,9.9-3.927.34.34,0,0,1,.348.331v1.714a.539.539,0,0,0,.932.341l4.89-5.141a.489.489,0,0,0,0-.681" transform="translate(2585 866)"/>
</svg>
